{
  "project_info": {
    "project_number": "932602569161",
    "firebase_url": "https://dietvise-test.firebaseio.com",
    "project_id": "dietvise-test",
    "storage_bucket": "dietvise-test.appspot.com"
  },
  "client": [
    {
      "client_info": {
        "mobilesdk_app_id": "1:932602569161:android:2b07531648689f99",
        "android_client_info": {
          "package_name": "com.dietvise"
        }
      },
      "oauth_client": [
        {
          "client_id": "932602569161-a77l67a1rn54fo6lhs7c7uvqn2rraugn.apps.googleusercontent.com",
          "client_type": 1,
          "android_info": {
            "package_name": "com.dietvise",
            "certificate_hash": "255776694caa205f9dc8d9f6e83966269bae7212"
          }
        },
        {
          "client_id": "932602569161-t5m6jqq5303judv5d98i9at6f1dj81h8.apps.googleusercontent.com",
          "client_type": 3
        }
      ],
      "api_key": [
        {
          "current_key": "AIzaSyAMHwFa5ExUmY0Jg-6-zdhuT_N4KuD_JDU"
        }
      ],
      "services": {
        "appinvite_service": {
          "other_platform_oauth_client": [
            {
              "client_id": "932602569161-t5m6jqq5303judv5d98i9at6f1dj81h8.apps.googleusercontent.com",
              "client_type": 3
            },
            {
              "client_id": "932602569161-3vri23l9l48q53fisqh7sd5jjdq480e5.apps.googleusercontent.com",
              "client_type": 2,
              "ios_info": {
                "bundle_id": "com.dietvise.dietvise"
              }
            }
          ]
        }
      }
    }
  ],
  "configuration_version": "1"
}